is_dtp,weekday_1,weekday_2,weekday_3,weekday_4,weekday_5,weekday_6,weekday_7,month_1,month_2,month_3,month_4,month_5,month_6,month_7,month_8,month_9,month_10,month_11,month_12,hour_0,hour_1,hour_2,hour_3,hour_4,hour_5,hour_6,hour_7,hour_8,hour_9,hour_10,hour_11,hour_12,hour_13,hour_14,hour_15,hour_16,hour_17,hour_18,hour_19,hour_20,hour_21,hour_22,hour_23,road_length,road_oneway,road_sin_by_st_length,dis_to_bus_stop,dis_to_traffic_signal,dis_to_crossing_place,dis_to_speed_cam,weather_temp,pressure,humidity,wind_speed,wind_dir_cos,wind_dir_sin,clouds,w_smoke,w_dust,w_thunderstorm,w_rain,w_haze,w_clouds,w_snow,w_clear,w_fog,w_squall,w_mist,w_drizzle
1,0,0,1,0,0,0,0,1,0,0,0,0,0,0,0,0,0,0,0,0,0,0,0,0,0,0,0,0,0,0,0,0,1,0,0,0,0,0,0,0,0,0,0,170.441186064151,1,1.00001144624124,5.51988839,0.0,0.0,75.41915003,-8.0,1009.0,78.0,5.0,0.642787609686539,-0.766044443118978,0.0,0,0,0,0,0,0,0,1,0,0,0,0
1,0,0,1,0,0,0,0,1,0,0,0,0,0,0,0,0,0,0,0,0,0,0,0,0,0,0,1,0,0,0,0,0,0,0,0,0,0,0,0,0,0,0,0,305.559000769466,0,1.0000176437271,10.2263384,0.0,0.0,728.3009801,-9.23999999999995,1007.0,78.0,6.0,0.766044443118978,-0.64278760968654,0.0,0,0,0,0,0,0,1,0,0,0,0,0
1,0,0,1,0,0,0,0,1,0,0,0,0,0,0,0,0,0,0,0,0,0,0,0,0,0,0,0,0,0,0,1,0,0,0,0,0,0,0,0,0,0,0,0,301.949249552742,1,1.00017476741393,12.83869815,0.0,0.0,4.52343883,-8.98999999999995,1009.0,78.0,4.0,0.642787609686539,-0.766044443118978,0.0,0,0,0,0,0,0,1,0,0,0,0,0
1,0,0,1,0,0,0,0,1,0,0,0,0,0,0,0,0,0,0,0,0,0,0,0,0,0,0,0,0,0,0,0,0,0,0,0,0,1,0,0,0,0,0,0,165.678783878792,1,1.00001300237622,25.63811314,0.0,0.0,1.3816986,-7.98999999999995,1010.0,85.0,4.0,0.17364817766693,-0.984807753012208,0.0,0,0,0,0,0,0,0,1,0,0,0,0
1,0,0,1,0,0,0,0,1,0,0,0,0,0,0,0,0,0,0,0,0,0,0,0,0,0,0,0,0,0,0,0,0,0,0,0,1,0,0,0,0,0,0,0,409.111073914507,0,1.00004699295841,8.1859896,343.47904901,0.0,351.28779479,-7.98999999999995,1010.0,85.0,4.0,0.17364817766693,-0.984807753012208,0.0,0,0,0,0,0,0,0,1,0,0,0,0
1,0,0,1,0,0,0,0,1,0,0,0,0,0,0,0,0,0,0,0,0,0,0,0,0,0,0,0,0,0,0,0,0,0,0,0,0,0,0,0,1,0,0,0,112.264158549797,1,1.00000136013684,20.90127489,0.0,0.0,1.48295561,-8.75,1011.0,92.0,5.0,0.342020143325669,-0.939692620785908,75.0,0,0,0,0,0,1,0,0,0,0,0,0
1,0,0,1,0,0,0,0,1,0,0,0,0,0,0,0,0,0,0,0,0,0,0,0,0,0,0,0,0,0,0,0,0,0,0,1,0,0,0,0,0,0,0,0,50.2730462191994,1,1.01286004219422,124.56715521,460.14612301,0.0,644.05123984,-7.75,1009.0,78.0,4.0,0.766044443118978,-0.64278760968654,0.0,0,0,0,0,0,0,0,1,0,0,0,0
1,0,0,1,0,0,0,0,1,0,0,0,0,0,0,0,0,0,0,0,0,0,0,0,0,0,0,0,0,1,0,0,0,0,0,0,0,0,0,0,0,0,0,0,324.838786885871,1,1.00000319470105,6.24825754,0.0,0.0,52.07481148,-9.48999999999995,1008.0,85.0,5.0,0.866025403784438,-0.5,0.0,0,0,0,0,0,0,1,0,0,0,0,0
1,0,0,1,0,0,0,0,1,0,0,0,0,0,0,0,0,0,0,0,0,0,0,0,0,0,0,0,0,1,0,0,0,0,0,0,0,0,0,0,0,0,0,0,68.5726670743605,1,1.0222402011192,68.68231497,396.60246212,379.25024629,36.12839883,-9.48999999999995,1008.0,85.0,5.0,0.866025403784438,-0.5,0.0,0,0,0,0,0,0,1,0,0,0,0,0
1,0,0,1,0,0,0,0,1,0,0,0,0,0,0,0,0,0,0,0,0,0,0,0,1,0,0,0,0,0,0,0,0,0,0,0,0,0,0,0,0,0,0,0,260.96645250026,1,1.0008962368707,325.490532,801.11633921,347.35129452,394.18545438,-9.65999999999997,1006.0,85.0,5.0,0.866025403784438,-0.5,75.0,0,0,0,0,0,0,1,0,0,0,0,0
1,0,0,1,0,0,0,0,1,0,0,0,0,0,0,0,0,0,0,0,0,0,0,0,0,0,0,0,0,0,0,0,0,0,0,0,1,0,0,0,0,0,0,0,82.9872356473608,0,1.00000033338968,59.01697954,0.0,110.19458346,88.49418461,-7.98999999999995,1010.0,85.0,4.0,0.17364817766693,-0.984807753012208,0.0,0,0,0,0,0,0,0,1,0,0,0,0
1,0,0,1,0,0,0,0,1,0,0,0,0,0,0,0,0,0,0,0,0,0,0,0,0,0,0,0,0,0,0,0,0,0,0,1,0,0,0,0,0,0,0,0,142.642519045211,0,1.00000000328727,10.37754666,0.0,0.0,69.77784349,-7.75,1009.0,78.0,4.0,0.766044443118978,-0.64278760968654,0.0,0,0,0,0,0,0,0,1,0,0,0,0
1,0,0,1,0,0,0,0,1,0,0,0,0,0,0,0,0,0,0,0,0,0,0,0,0,1,0,0,0,0,0,0,0,0,0,0,0,0,0,0,0,0,0,0,433.940804647236,1,1.00123511320096,40.34271947,650.70006866,370.912169,678.5006777,-9.65999999999997,1007.0,85.0,5.0,0.766044443118978,-0.64278760968654,40.0,0,0,0,0,0,0,1,0,0,0,0,0
1,0,0,1,0,0,0,0,1,0,0,0,0,0,0,0,0,0,0,0,0,0,0,0,0,0,0,0,0,0,0,1,0,0,0,0,0,0,0,0,0,0,0,0,102.008602803053,0,1.00007271921637,37.53570206,467.53450188,12.69271579,14.05650381,-8.98999999999995,1009.0,78.0,4.0,0.642787609686539,-0.766044443118978,0.0,0,0,0,0,0,0,1,0,0,0,0,0
1,0,0,1,0,0,0,0,1,0,0,0,0,0,0,0,0,0,0,0,0,0,0,0,0,0,0,0,0,0,0,1,0,0,0,0,0,0,0,0,0,0,0,0,363.388231966053,1,1.00000004270015,275.46608363,411.3664596,267.84067581,99.18977427,-8.98999999999995,1009.0,78.0,4.0,0.642787609686539,-0.766044443118978,0.0,0,0,0,0,0,0,1,0,0,0,0,0
